05-12-2025/sim/test6.log
# vsim -vopt -voptargs="+acc" -coverage -sva -c -do " log -r /* ;coverage save -onexit mem_cov6;run -all; exit" -wlf wave5.wlf -l test6.log -sv_seed random work.testbench "+UVM_TESTNAME=algn_test_rxfifo_full" 
# Start time: 11:04:36 on Dec 08,2025
# ** Note: (vsim-3812) Design is being optimized...
# //  Questa Sim-64
# //  Version 2021.2_1 linux_x86_64 May 15 2021
# //
# //  Copyright 1991-2021 Mentor Graphics Corporation
# //  All Rights Reserved.
# //
# //  QuestaSim and its associated documentation contain trade
# //  secrets and commercial or financial information that are the property of
# //  Mentor Graphics Corporation and are privileged, confidential,
# //  and exempt from disclosure under the Freedom of Information Act,
# //  5 U.S.C. Section 552. Furthermore, this information
# //  is prohibited from disclosure under the Trade Secrets Act,
# //  18 U.S.C. Section 1905.
# //
# Loading sv_std.std
# Loading work.cfs_algn_if(fast)
# Loading work.cfs_apb_if(fast)
# Loading work.cfs_md_if(fast)
# Loading mtiUvm.uvm_pkg(fast)
# Loading work.cfs_algn_reg_pkg(fast)
# Loading work.uvm_ext_pkg(fast)
# Loading work.cfs_md_pkg(fast)
# Loading work.cfs_apb_pkg(fast)
# Loading work.cfs_algn_pkg(fast)
# Loading work.cfs_algn_test_pkg(fast)
# Loading mtiUvm.questa_uvm_pkg(fast)
# Loading work.testbench(fast)
# Loading work.cfs_apb_if(fast__2)
# Loading work.cfs_md_if(fast__2)
# Loading work.cfs_algn_if(fast__2)
# Loading work.cfs_aligner(fast)
# Loading work.cfs_aligner_core(fast)
# Loading work.cfs_rx_ctrl(fast)
# Loading work.cfs_synch(fast)
# Loading work.cfs_synch_fifo(fast)
# Loading work.cfs_tx_ctrl(fast)
# Loading work.cfs_ctrl(fast)
# Loading work.cfs_regs(fast)
# Loading work.cfs_edge_detect(fast)
# Loading work.cfs_edge_detect(fast__1)
# Loading /home/akshitha/Downloads/questasim/uvm-1.1d/linux_x86_64/uvm_dpi.so
# ** Warning: (vsim-8634) Code was not compiled with coverage options.
# Sv_Seed = 2190244571
#  log -r /* 
# coverage save -onexit mem_cov6
# run -all
# ----------------------------------------------------------------
# UVM-1.1d
# (C) 2007-2013 Mentor Graphics Corporation
# (C) 2007-2013 Cadence Design Systems, Inc.
# (C) 2006-2013 Synopsys, Inc.
# (C) 2011-2013 Cypress Semiconductor Corp.
# ----------------------------------------------------------------
# 
#   ***********       IMPORTANT RELEASE NOTES         ************
# 
#   You are using a version of the UVM library that has been compiled
#   with `UVM_NO_DEPRECATED undefined.
#   See http://www.eda.org/svdb/view.php?id=3313 for more details.
# 
#   You are using a version of the UVM library that has been compiled
#   with `UVM_OBJECT_MUST_HAVE_CONSTRUCTOR undefined.
#   See http://www.eda.org/svdb/view.php?id=3770 for more details.
# 
#       (Specify +UVM_NO_RELNOTES to turn off this notice)
# 
# UVM_INFO verilog_src/questa_uvm_pkg-1.2/src/questa_uvm_pkg.sv(277) @ 0: reporter [Questa UVM] QUESTA_UVM-1.2.3
# UVM_INFO verilog_src/questa_uvm_pkg-1.2/src/questa_uvm_pkg.sv(278) @ 0: reporter [Questa UVM]  questa_uvm::init(+struct)
# UVM_INFO @ 0: reporter [RNTST] Running test algn_test_rxfifo_full...
# ** Warning: (vsim-12051) Illegal assignment in cast to class work.cfs_md_pkg::cfs_md_sequencer_base_master from class work.uvm_ext_pkg::uvm_ext_sequencer #(class work.cfs_md_pkg::cfs_md_item_drv_master)
#    Time: 0 ns  Iteration: 15  Process: /uvm_pkg::uvm_phase::m_run_phases/#FORK#1847_7fefe44469f File: ../tb/cfs_algn_env.sv Line: 129
# ** Warning: (vsim-12051) Illegal assignment in cast to class work.cfs_md_pkg::cfs_md_sequencer_base_slave from class work.uvm_ext_pkg::uvm_ext_sequencer #(class work.cfs_md_pkg::cfs_md_item_drv_slave)
#    Time: 0 ns  Iteration: 15  Process: /uvm_pkg::uvm_phase::m_run_phases/#FORK#1847_7fefe44469f File: ../tb/cfs_algn_env.sv Line: 134
# UVM_INFO @ 0: reporter [UVMTOP] UVM testbench topology:
# --------------------------------------------------------------------------------
# Name                          Type                                   Size  Value
# --------------------------------------------------------------------------------
# uvm_test_top                  algn_test_rxfifo_full                  -     @487 
#   env                         uvm_env                                -     @494 
#     agent_config              uvm_component                          -     @522 
#     apb_agent                 cfs_apb_agent                          -     @508 
#       agent_config            cfs_apb_agent_config                   -     @870 
#       coverage                cfs_apb_coverage                       -     @892 
#         port_item             uvm_analysis_imp_item                  -     @899 
#         wrap_cover_addr_0     uvm_component                          -     @1039
#         wrap_cover_addr_1     uvm_component                          -     @1046
#         wrap_cover_rd_data_0  uvm_component                          -     @1067
#         wrap_cover_rd_data_1  uvm_component                          -     @1074
#         wrap_cover_wr_data_0  uvm_component                          -     @1053
#         wrap_cover_wr_data_1  uvm_component                          -     @1060
#       driver                  cfs_apb_driver                         -     @907 
#         rsp_port              uvm_analysis_port                      -     @922 
#         seq_item_port         uvm_seq_item_pull_port                 -     @914 
#       monitor                 cfs_apb_monitor                        -     @877 
#         output_port           uvm_analysis_port                      -     @884 
#       sequencer               uvm_sequencer                          -     @930 
#         rsp_export            uvm_analysis_export                    -     @937 
#         seq_item_export       uvm_seq_item_pull_imp                  -     @1031
#         arbitration_queue     array                                  0     -    
#         lock_queue            array                                  0     -    
#         num_last_reqs         integral                               32    'd1  
#         num_last_rsps         integral                               32    'd1  
#     coverage                  cfs_algn_coverage                      -     @744 
#       port_in_split_info      uvm_analysis_imp_in_split_info         -     @751 
#     env_config                cfs_algn_env_config                    -     @501 
#     md_rx_agent               uvm_agent                              -     @515 
#       agent_config            uvm_component                          -     @1088
#       coverage                uvm_component                          -     @1110
#         port_item             uvm_analysis_imp_item                  -     @1117
#         wrap_cover_data_0     uvm_component                          -     @1257
#         wrap_cover_data_1     uvm_component                          -     @1264
#       driver                  uvm_driver #(REQ,RSP)                  -     @1125
#         rsp_port              uvm_analysis_port                      -     @1140
#         seq_item_port         uvm_seq_item_pull_port                 -     @1132
#       monitor                 uvm_monitor                            -     @1095
#         output_port           uvm_analysis_port                      -     @1102
#       sequencer               cfs_md_sequencer_base_master           -     @1148
#         rsp_export            uvm_analysis_export                    -     @1155
#         seq_item_export       uvm_seq_item_pull_imp                  -     @1249
#         arbitration_queue     array                                  0     -    
#         lock_queue            array                                  0     -    
#         num_last_reqs         integral                               32    'd1  
#         num_last_rsps         integral                               32    'd1  
#     md_tx_agent               uvm_agent                              -     @533 
#       coverage                uvm_component                          -     @1293
#         port_item             uvm_analysis_imp_item                  -     @1300
#         wrap_cover_data_0     uvm_component                          -     @1487
#         wrap_cover_data_1     uvm_component                          -     @1494
#       driver                  uvm_driver #(REQ,RSP)                  -     @1308
#         rsp_port              uvm_analysis_port                      -     @1323
#         seq_item_port         uvm_seq_item_pull_port                 -     @1315
#       monitor                 uvm_monitor                            -     @1278
#         output_port           uvm_analysis_port                      -     @1285
#       sequencer               cfs_md_sequencer_base_slave            -     @1331
#         pending_items         uvm_tlm_fifo #(T)                      -     @1448
#           get_ap              uvm_analysis_port                      -     @1479
#           get_peek_export     uvm_get_peek_imp                       -     @1463
#           put_ap              uvm_analysis_port                      -     @1471
#           put_export          uvm_put_imp                            -     @1455
#         port_from_mon         uvm_analysis_imp                       -     @1440
#         rsp_export            uvm_analysis_export                    -     @1338
#         seq_item_export       uvm_seq_item_pull_imp                  -     @1432
#         arbitration_queue     array                                  0     -    
#         lock_queue            array                                  0     -    
#         num_last_reqs         integral                               32    'd1  
#         num_last_rsps         integral                               32    'd1  
#     model                     cfs_algn_model                         -     @540 
#       port_in_rx              uvm_analysis_imp_in_rx                 -     @547 
#       port_in_tx              uvm_analysis_imp_in_tx                 -     @555 
#       port_out_irq            uvm_analysis_port                      -     @579 
#       port_out_rx             uvm_analysis_port                      -     @563 
#       port_out_split_info     uvm_analysis_port                      -     @587 
#       port_out_tx             uvm_analysis_port                      -     @571 
#       rx_fifo                 uvm_tlm_fifo #(T)                      -     @595 
#         get_ap                uvm_analysis_port                      -     @626 
#         get_peek_export       uvm_get_peek_imp                       -     @610 
#         put_ap                uvm_analysis_port                      -     @618 
#         put_export            uvm_put_imp                            -     @602 
#       tx_fifo                 uvm_tlm_fifo #(T)                      -     @634 
#         get_ap                uvm_analysis_port                      -     @665 
#         get_peek_export       uvm_get_peek_imp                       -     @649 
#         put_ap                uvm_analysis_port                      -     @657 
#         put_export            uvm_put_imp                            -     @641 
#     predictor                 uvm_reg_predictor #(cfs_apb_item_mon)  -     @674 
#       bus_in                  uvm_analysis_imp                       -     @681 
#       reg_ap                  uvm_analysis_port                      -     @689 
#     scoreboard                cfs_algn_scoreboard                    -     @697 
#       port_in_agent_rx        uvm_analysis_imp_in_agent_rx           -     @728 
#       port_in_agent_tx        uvm_analysis_imp_in_agent_tx           -     @736 
#       port_in_model_irq       uvm_analysis_imp_in_model_irq          -     @720 
#       port_in_model_rx        uvm_analysis_imp_in_model_rx           -     @704 
#       port_in_model_tx        uvm_analysis_imp_in_model_tx           -     @712 
#     virtual_sequencer         cfs_algn_virtual_sequencer             -     @759 
#       rsp_export              uvm_analysis_export                    -     @766 
#       seq_item_export         uvm_seq_item_pull_imp                  -     @860 
#       arbitration_queue       array                                  0     -    
#       lock_queue              array                                  0     -    
#       num_last_reqs           integral                               32    'd1  
#       num_last_rsps           integral                               32    'd1  
# --------------------------------------------------------------------------------
# 
# ====================
# ====================
# ====================
# UVM_INFO ../tb/vseq/algn_vseq_rxfifo_full.sv(43) @ 100: uvm_test_top.env.virtual_sequencer@@rx_vseq [algn_vseq_rxfifo_full] *********Starting RXFIFO_FULL test sequence********
# data_width = 32
# UVM_INFO ../tb/md/cfs_md_pkg.sv(756) @ 100: uvm_test_top.env.md_tx_agent.driver [ITEM_START] Driving "uvm_test_top.env.md_tx_agent.sequencer.stall_seq.stall_item": length: 300, response: CFS_MD_OKAY, ready_at_end: 1
# UVM_ERROR ../tb/md/cfs_md_pkg.sv(759) @ 100: uvm_test_top.env.md_tx_agent.driver [ALGORITHM_ISSUE] Trying to drive a slave item when there is no item started by the master - item: length: 300, response: CFS_MD_OKAY, ready_at_end: 1
# UVM_INFO ../tb/apb/cfs_apb_pkg.sv(466) @ 100: uvm_test_top.env.apb_agent.driver [ITEM_START] Driving "uvm_test_top.env.virtual_sequencer.rx_vseq.item": dir: CFS_APB_WRITE, addr: 0, data: 1, pre_drive_delay: 5, post_drive_delay: 3
# UVM_INFO ../tb/apb/cfs_apb_pkg.sv(259) @ 175: uvm_test_top.env.apb_agent.monitor [ITEM_END] Monitored item:: dir: CFS_APB_WRITE, addr: 0, data: 1, response: CFS_APB_OKAY, length: 3, prev_item_delay: 12
# UVM_INFO ../tb/vseq/algn_vseq_rxfifo_full.sv(35) @ 205: uvm_test_top.env.virtual_sequencer@@rx_vseq [CTRL REG CONFIGURING] CTRL reg configured: 1
# UVM_INFO ../tb/md/cfs_md_pkg.sv(665) @ 255: uvm_test_top.env.md_rx_agent.driver [ITEM_START] Driving "uvm_test_top.env.md_rx_agent.sequencer.rx_seq.item": data: {'h61, 'he5, 'hdb, 'h77}, offset: 0, pre_drive_delay: 2, post_drive_delay: 0
# UVM_INFO ../tb/md/cfs_md_pkg.sv(351) @ 276: uvm_test_top.env.md_rx_agent.monitor [ITEM_START] Monitor started collecting item: [276..-1] data: {'h61, 'he5, 'hdb, 'h77}, size: 4, offset: 0, response: CFS_MD_OKAY, length: 1, prev_item_delay: 24
# UVM_INFO ../tb/cfs_algn_scoreboard.sv(239) @ 276: uvm_test_top.env.scoreboard [SCOREBOARD] IN WRITE_IN_AGENT_RX
# UVM_INFO ../tb/cfs_algn_scoreboard.sv(239) @ 285: uvm_test_top.env.scoreboard [SCOREBOARD] IN WRITE_IN_AGENT_RX
# UVM_INFO ../tb/md/cfs_md_pkg.sv(374) @ 285: uvm_test_top.env.md_rx_agent.monitor [ITEM_END] Monitored item: [285..285] data: {'h61, 'he5, 'hdb, 'h77}, size: 4, offset: 0, response: CFS_MD_OKAY, length: 1, prev_item_delay: 24
# ---------------------------------------------------------------------
# UVM_INFO ../tb/md/cfs_md_pkg.sv(665) @ 285: uvm_test_top.env.md_rx_agent.driver [ITEM_START] Driving "uvm_test_top.env.md_rx_agent.sequencer.rx_seq.item": data: {'h02, 'hcc, 'he6, 'h1d}, offset: 0, pre_drive_delay: 4, post_drive_delay: 1
# UVM_INFO ../tb/md/cfs_md_pkg.sv(351) @ 306: uvm_test_top.env.md_tx_agent.monitor [ITEM_START] Monitor started collecting item: [306..-1] data: {'h61}, size: 1, offset: 0, response: CFS_MD_OKAY, length: 1, prev_item_delay: 27
# UVM_INFO ../tb/cfs_algn_scoreboard.sv(257) @ 306: uvm_test_top.env.scoreboard [SCOREBOARD] IN WRITE_IN_AGENT_TX
# UVM_INFO ../tb/md/cfs_md_pkg.sv(351) @ 326: uvm_test_top.env.md_rx_agent.monitor [ITEM_START] Monitor started collecting item: [326..-1] data: {'h02, 'hcc, 'he6, 'h1d}, size: 4, offset: 0, response: CFS_MD_OKAY, length: 1, prev_item_delay: 4
# UVM_INFO ../tb/cfs_algn_scoreboard.sv(239) @ 326: uvm_test_top.env.scoreboard [SCOREBOARD] IN WRITE_IN_AGENT_RX
# UVM_INFO ../tb/cfs_algn_scoreboard.sv(239) @ 335: uvm_test_top.env.scoreboard [SCOREBOARD] IN WRITE_IN_AGENT_RX
# UVM_INFO ../tb/md/cfs_md_pkg.sv(374) @ 335: uvm_test_top.env.md_rx_agent.monitor [ITEM_END] Monitored item: [335..335] data: {'h02, 'hcc, 'he6, 'h1d}, size: 4, offset: 0, response: CFS_MD_OKAY, length: 1, prev_item_delay: 4
# ---------------------------------------------------------------------
# UVM_INFO ../tb/md/cfs_md_pkg.sv(665) @ 345: uvm_test_top.env.md_rx_agent.driver [ITEM_START] Driving "uvm_test_top.env.md_rx_agent.sequencer.rx_seq.item": data: {'h83, 'hc1, 'h34, 'hbf}, offset: 0, pre_drive_delay: 5, post_drive_delay: 0
# UVM_INFO ../tb/md/cfs_md_pkg.sv(351) @ 396: uvm_test_top.env.md_rx_agent.monitor [ITEM_START] Monitor started collecting item: [396..-1] data: {'h83, 'hc1, 'h34, 'hbf}, size: 4, offset: 0, response: CFS_MD_OKAY, length: 1, prev_item_delay: 6
# UVM_INFO ../tb/cfs_algn_scoreboard.sv(239) @ 396: uvm_test_top.env.scoreboard [SCOREBOARD] IN WRITE_IN_AGENT_RX
# UVM_INFO ../tb/cfs_algn_scoreboard.sv(239) @ 405: uvm_test_top.env.scoreboard [SCOREBOARD] IN WRITE_IN_AGENT_RX
# UVM_INFO ../tb/md/cfs_md_pkg.sv(374) @ 405: uvm_test_top.env.md_rx_agent.monitor [ITEM_END] Monitored item: [405..405] data: {'h83, 'hc1, 'h34, 'hbf}, size: 4, offset: 0, response: CFS_MD_OKAY, length: 1, prev_item_delay: 6
# ---------------------------------------------------------------------
# UVM_INFO ../tb/md/cfs_md_pkg.sv(665) @ 405: uvm_test_top.env.md_rx_agent.driver [ITEM_START] Driving "uvm_test_top.env.md_rx_agent.sequencer.rx_seq.item": data: {'h45, 'h25, 'hb5, 'h13}, offset: 0, pre_drive_delay: 5, post_drive_delay: 0
# UVM_INFO ../tb/md/cfs_md_pkg.sv(351) @ 456: uvm_test_top.env.md_rx_agent.monitor [ITEM_START] Monitor started collecting item: [456..-1] data: {'h45, 'h25, 'hb5, 'h13}, size: 4, offset: 0, response: CFS_MD_OKAY, length: 1, prev_item_delay: 5
# UVM_INFO ../tb/cfs_algn_scoreboard.sv(239) @ 456: uvm_test_top.env.scoreboard [SCOREBOARD] IN WRITE_IN_AGENT_RX
# UVM_INFO ../tb/cfs_algn_scoreboard.sv(239) @ 465: uvm_test_top.env.scoreboard [SCOREBOARD] IN WRITE_IN_AGENT_RX
# UVM_INFO ../tb/md/cfs_md_pkg.sv(374) @ 465: uvm_test_top.env.md_rx_agent.monitor [ITEM_END] Monitored item: [465..465] data: {'h45, 'h25, 'hb5, 'h13}, size: 4, offset: 0, response: CFS_MD_OKAY, length: 1, prev_item_delay: 5
# ---------------------------------------------------------------------
# UVM_INFO ../tb/md/cfs_md_pkg.sv(665) @ 465: uvm_test_top.env.md_rx_agent.driver [ITEM_START] Driving "uvm_test_top.env.md_rx_agent.sequencer.rx_seq.item": data: {'h74, 'h6d, 'h19, 'hd9}, offset: 0, pre_drive_delay: 1, post_drive_delay: 2
# UVM_INFO ../tb/md/cfs_md_pkg.sv(351) @ 476: uvm_test_top.env.md_rx_agent.monitor [ITEM_START] Monitor started collecting item: [476..-1] data: {'h74, 'h6d, 'h19, 'hd9}, size: 4, offset: 0, response: CFS_MD_OKAY, length: 1, prev_item_delay: 1
# UVM_INFO ../tb/cfs_algn_scoreboard.sv(239) @ 476: uvm_test_top.env.scoreboard [SCOREBOARD] IN WRITE_IN_AGENT_RX
# UVM_INFO ../tb/cfs_algn_scoreboard.sv(239) @ 485: uvm_test_top.env.scoreboard [SCOREBOARD] IN WRITE_IN_AGENT_RX
# UVM_INFO ../tb/md/cfs_md_pkg.sv(374) @ 485: uvm_test_top.env.md_rx_agent.monitor [ITEM_END] Monitored item: [485..485] data: {'h74, 'h6d, 'h19, 'hd9}, size: 4, offset: 0, response: CFS_MD_OKAY, length: 1, prev_item_delay: 1
# ---------------------------------------------------------------------
# UVM_INFO ../tb/md/cfs_md_pkg.sv(665) @ 505: uvm_test_top.env.md_rx_agent.driver [ITEM_START] Driving "uvm_test_top.env.md_rx_agent.sequencer.rx_seq.item": data: {'hd3, 'hd4, 'h85, 'h18}, offset: 0, pre_drive_delay: 2, post_drive_delay: 5
# UVM_INFO ../tb/md/cfs_md_pkg.sv(351) @ 526: uvm_test_top.env.md_rx_agent.monitor [ITEM_START] Monitor started collecting item: [526..-1] data: {'hd3, 'hd4, 'h85, 'h18}, size: 4, offset: 0, response: CFS_MD_OKAY, length: 1, prev_item_delay: 4
# UVM_INFO ../tb/cfs_algn_scoreboard.sv(239) @ 526: uvm_test_top.env.scoreboard [SCOREBOARD] IN WRITE_IN_AGENT_RX
# UVM_INFO ../tb/cfs_algn_scoreboard.sv(239) @ 535: uvm_test_top.env.scoreboard [SCOREBOARD] IN WRITE_IN_AGENT_RX
# UVM_INFO ../tb/md/cfs_md_pkg.sv(374) @ 535: uvm_test_top.env.md_rx_agent.monitor [ITEM_END] Monitored item: [535..535] data: {'hd3, 'hd4, 'h85, 'h18}, size: 4, offset: 0, response: CFS_MD_OKAY, length: 1, prev_item_delay: 4
# ---------------------------------------------------------------------
# UVM_INFO ../tb/md/cfs_md_pkg.sv(665) @ 585: uvm_test_top.env.md_rx_agent.driver [ITEM_START] Driving "uvm_test_top.env.md_rx_agent.sequencer.rx_seq.item": data: {'ha8, 'h7e, 'hdc, 'h49}, offset: 0, pre_drive_delay: 4, post_drive_delay: 0
# UVM_INFO ../tb/md/cfs_md_pkg.sv(351) @ 626: uvm_test_top.env.md_rx_agent.monitor [ITEM_START] Monitor started collecting item: [626..-1] data: {'ha8, 'h7e, 'hdc, 'h49}, size: 4, offset: 0, response: CFS_MD_OKAY, length: 1, prev_item_delay: 9
# UVM_INFO ../tb/cfs_algn_scoreboard.sv(239) @ 626: uvm_test_top.env.scoreboard [SCOREBOARD] IN WRITE_IN_AGENT_RX
# UVM_INFO ../tb/cfs_algn_scoreboard.sv(239) @ 635: uvm_test_top.env.scoreboard [SCOREBOARD] IN WRITE_IN_AGENT_RX
# UVM_INFO ../tb/md/cfs_md_pkg.sv(374) @ 635: uvm_test_top.env.md_rx_agent.monitor [ITEM_END] Monitored item: [635..635] data: {'ha8, 'h7e, 'hdc, 'h49}, size: 4, offset: 0, response: CFS_MD_OKAY, length: 1, prev_item_delay: 9
# ---------------------------------------------------------------------
# UVM_INFO ../tb/md/cfs_md_pkg.sv(665) @ 635: uvm_test_top.env.md_rx_agent.driver [ITEM_START] Driving "uvm_test_top.env.md_rx_agent.sequencer.rx_seq.item": data: {'h9d, 'h20, 'hd5, 'hf2}, offset: 0, pre_drive_delay: 1, post_drive_delay: 4
# UVM_INFO ../tb/md/cfs_md_pkg.sv(351) @ 646: uvm_test_top.env.md_rx_agent.monitor [ITEM_START] Monitor started collecting item: [646..-1] data: {'h9d, 'h20, 'hd5, 'hf2}, size: 4, offset: 0, response: CFS_MD_OKAY, length: 1, prev_item_delay: 1
# UVM_INFO ../tb/cfs_algn_scoreboard.sv(239) @ 646: uvm_test_top.env.scoreboard [SCOREBOARD] IN WRITE_IN_AGENT_RX
# UVM_INFO ../tb/cfs_algn_scoreboard.sv(239) @ 655: uvm_test_top.env.scoreboard [SCOREBOARD] IN WRITE_IN_AGENT_RX
# UVM_INFO ../tb/md/cfs_md_pkg.sv(374) @ 655: uvm_test_top.env.md_rx_agent.monitor [ITEM_END] Monitored item: [655..655] data: {'h9d, 'h20, 'hd5, 'hf2}, size: 4, offset: 0, response: CFS_MD_OKAY, length: 1, prev_item_delay: 1
# ---------------------------------------------------------------------
# UVM_INFO ../tb/md/cfs_md_pkg.sv(665) @ 695: uvm_test_top.env.md_rx_agent.driver [ITEM_START] Driving "uvm_test_top.env.md_rx_agent.sequencer.rx_seq.item": data: {'he7, 'ha3, 'h15, 'h2c}, offset: 0, pre_drive_delay: 5, post_drive_delay: 0
# UVM_INFO ../tb/md/cfs_md_pkg.sv(351) @ 746: uvm_test_top.env.md_rx_agent.monitor [ITEM_START] Monitor started collecting item: [746..-1] data: {'he7, 'ha3, 'h15, 'h2c}, size: 4, offset: 0, response: CFS_MD_OKAY, length: 1, prev_item_delay: 9
# UVM_INFO ../tb/cfs_algn_scoreboard.sv(239) @ 746: uvm_test_top.env.scoreboard [SCOREBOARD] IN WRITE_IN_AGENT_RX
# UVM_INFO ../tb/cfs_algn_scoreboard.sv(239) @ 755: uvm_test_top.env.scoreboard [SCOREBOARD] IN WRITE_IN_AGENT_RX
# UVM_INFO ../tb/md/cfs_md_pkg.sv(374) @ 755: uvm_test_top.env.md_rx_agent.monitor [ITEM_END] Monitored item: [755..755] data: {'he7, 'ha3, 'h15, 'h2c}, size: 4, offset: 0, response: CFS_MD_OKAY, length: 1, prev_item_delay: 9
# ---------------------------------------------------------------------
# UVM_INFO ../tb/md/cfs_md_pkg.sv(665) @ 755: uvm_test_top.env.md_rx_agent.driver [ITEM_START] Driving "uvm_test_top.env.md_rx_agent.sequencer.rx_seq.item": data: {'h13, 'h5d, 'h10, 'ha7}, offset: 0, pre_drive_delay: 5, post_drive_delay: 1
# UVM_INFO ../tb/md/cfs_md_pkg.sv(351) @ 806: uvm_test_top.env.md_rx_agent.monitor [ITEM_START] Monitor started collecting item: [806..-1] data: {'h13, 'h5d, 'h10, 'ha7}, size: 4, offset: 0, response: CFS_MD_OKAY, length: 1, prev_item_delay: 5
# UVM_INFO ../tb/cfs_algn_scoreboard.sv(239) @ 806: uvm_test_top.env.scoreboard [SCOREBOARD] IN WRITE_IN_AGENT_RX
# UVM_INFO ../tb/cfs_algn_scoreboard.sv(239) @ 815: uvm_test_top.env.scoreboard [SCOREBOARD] IN WRITE_IN_AGENT_RX
# UVM_INFO ../tb/md/cfs_md_pkg.sv(374) @ 815: uvm_test_top.env.md_rx_agent.monitor [ITEM_END] Monitored item: [815..815] data: {'h13, 'h5d, 'h10, 'ha7}, size: 4, offset: 0, response: CFS_MD_OKAY, length: 1, prev_item_delay: 5
# ---------------------------------------------------------------------
# UVM_INFO ../tb/md/cfs_md_pkg.sv(665) @ 825: uvm_test_top.env.md_rx_agent.driver [ITEM_START] Driving "uvm_test_top.env.md_rx_agent.sequencer.rx_seq.item": data: {'h16, 'h3e, 'h6f, 'h2e}, offset: 0, pre_drive_delay: 0, post_drive_delay: 2
# UVM_INFO ../tb/md/cfs_md_pkg.sv(351) @ 826: uvm_test_top.env.md_rx_agent.monitor [ITEM_START] Monitor started collecting item: [826..-1] data: {'h16, 'h3e, 'h6f, 'h2e}, size: 4, offset: 0, response: CFS_MD_OKAY, length: 1, prev_item_delay: 1
# UVM_INFO ../tb/cfs_algn_scoreboard.sv(239) @ 826: uvm_test_top.env.scoreboard [SCOREBOARD] IN WRITE_IN_AGENT_RX
# UVM_INFO ../tb/cfs_algn_scoreboard.sv(239) @ 835: uvm_test_top.env.scoreboard [SCOREBOARD] IN WRITE_IN_AGENT_RX
# UVM_INFO ../tb/md/cfs_md_pkg.sv(374) @ 835: uvm_test_top.env.md_rx_agent.monitor [ITEM_END] Monitored item: [835..835] data: {'h16, 'h3e, 'h6f, 'h2e}, size: 4, offset: 0, response: CFS_MD_OKAY, length: 1, prev_item_delay: 1
# ---------------------------------------------------------------------
# UVM_INFO ../tb/vseq/algn_vseq_rxfifo_full.sv(78) @ 1155: uvm_test_top.env.virtual_sequencer@@rx_vseq [algn_vseq_rxfifo_full] *********Completed RXFIFO_FULL test sequence**********
# UVM_INFO verilog_src/uvm-1.1d/src/base/uvm_objection.svh(1267) @ 1655: reporter [TEST_DONE] 'run' phase is ready to proceed to the 'extract' phase
# 
# --- UVM Report Summary ---
# 
# ** Report counts by severity
# UVM_INFO :   68
# UVM_WARNING :    0
# UVM_ERROR :    1
# UVM_FATAL :    0
# ** Report counts by id
# [ALGORITHM_ISSUE]     1
# [CTRL REG CONFIGURING]     1
# [ITEM_END]    12
# [ITEM_START]    25
# [Questa UVM]     2
# [RNTST]     1
# [SCOREBOARD]    23
# [TEST_DONE]     1
# [UVMTOP]     1
# [algn_vseq_rxfifo_full]     2
# ** Note: $finish    : /home/akshitha/Downloads/questasim/linux_x86_64/../verilog_src/uvm-1.1d/src/base/uvm_root.svh(430)
#    Time: 1655 ns  Iteration: 54  Instance: /testbench
# Saving coverage database on exit...
# End time: 11:04:42 on Dec 08,2025, Elapsed time: 0:00:06
# Errors: 0, Warnings: 3
